{
	"info": {
		"_postman_id": "3e343e50-0357-4a7e-8e22-58adbf8dbba8",
		"name": "simplebanking",
		"schema": "https://schema.getpostman.com/json/collection/v2.1.0/collection.json"
	},
	"item": [
		{
			"name": "Deposit amount",
			"request": {
				"method": "POST",
				"header": [],
				"body": {
					"mode": "raw",
					"raw": "{\n\t\"amount\": 250\n}",
					"options": {
						"raw": {
							"language": "json"
						}
					}
				},
				"url": {
					"raw": "http://localhost:8080/account/v1/credit/111-111",
					"protocol": "http",
					"host": [
						"localhost"
					],
					"port": "8080",
					"path": [
						"account",
						"v1",
						"credit",
						"111-111"
					]
				},
				"description": "Deposits requested amount to bank account"
			},
			"response": []
		},
		{
			"name": "Create Account",
			"request": {
				"method": "POST",
				"header": [],
				"body": {
					"mode": "raw",
					"raw": "{\n\t\"accountNumber\": \"111-111\",\n\t\"owner\": \"Özcan Candağ\",\n\t\"balance\": 5\n}",
					"options": {
						"raw": {
							"language": "json"
						}
					}
				},
				"url": {
					"raw": "http://localhost:8080/account/v1",
					"protocol": "http",
					"host": [
						"localhost"
					],
					"port": "8080",
					"path": [
						"account",
						"v1"
					]
				},
				"description": "Create a bank account\n"
			},
			"response": []
		},
		{
			"name": "Get Account",
			"request": {
				"method": "GET",
				"header": [],
				"url": {
					"raw": "http://localhost:8080/account/v1/111-111",
					"protocol": "http",
					"host": [
						"localhost"
					],
					"port": "8080",
					"path": [
						"account",
						"v1",
						"111-111"
					]
				},
				"description": "Get all the information about requested bank account\n"
			},
			"response": []
		},
		{
			"name": "Phone bill payment request",
			"request": {
				"method": "POST",
				"header": [],
				"body": {
					"mode": "raw",
					"raw": "{\n\t\"amount\": 55,\n\t\"operator\": \"VODAFONE\",\n\t\"phoneNumber\": \"5399822264\"\n}",
					"options": {
						"raw": {
							"language": "json"
						}
					}
				},
				"url": {
					"raw": "http://localhost:8080/account/v1/bill/payment/phone/111-111",
					"protocol": "http",
					"host": [
						"localhost"
					],
					"port": "8080",
					"path": [
						"account",
						"v1",
						"bill",
						"payment",
						"phone",
						"111-111"
					]
				},
				"description": "Bill payment sample request"
			},
			"response": []
		}
	],
	"protocolProfileBehavior": {}
}